WARNING: 'require 'rake/rdoctask'' is deprecated.  Please use 'require 'rdoc/task' (in RDoc 2.4.2+)' instead.
    at /usr/local/rvm/gems/ruby-1.9.3-p194@global/gems/rake-0.9.2.2/lib/rake/rdoctask.rb
WARNING: Global access to Rake DSL methods is deprecated.  Please include
    ...  Rake::DSL into classes and modules which use the Rake DSL methods.
WARNING: DSL method Jshop::Application#task called at /usr/local/rvm/gems/ruby-1.9.3-p194/gems/railties-3.0.7/lib/rails/application.rb:215:in `initialize_tasks'
** Invoke paperclip:refresh (first_time)
** Invoke paperclip:refresh:metadata (first_time)
** Invoke environment (first_time)
** Execute environment
** Execute paperclip:refresh:metadata
** Invoke paperclip:refresh:thumbnails (first_time)
** Invoke environment 
** Execute paperclip:refresh:thumbnails
Requiring REXML
[Spree Social] Loading Facebook as authentication source
[Spree Social] Loading Google as authentication source
[Spree Social] Loading Vkontakte as authentication source
[Spree Social] Loading Mailru as authentication source
** Execute paperclip:refresh
WARNING: 'require 'rake/rdoctask'' is deprecated.  Please use 'require 'rdoc/task' (in RDoc 2.4.2+)' instead.
    at /usr/local/rvm/gems/ruby-1.9.3-p0@global/gems/rake-0.9.2.2/lib/rake/rdoctask.rb
WARNING: Global access to Rake DSL methods is deprecated.  Please include
    ...  Rake::DSL into classes and modules which use the Rake DSL methods.
WARNING: DSL method Jshop::Application#task called at /usr/local/rvm/gems/ruby-1.9.3-p0/gems/railties-3.0.7/lib/rails/application.rb:215:in `initialize_tasks'
WARNING: 'require 'rake/rdoctask'' is deprecated.  Please use 'require 'rdoc/task' (in RDoc 2.4.2+)' instead.
    at /usr/local/rvm/gems/ruby-1.9.3-p194@global/gems/rake-0.9.2.2/lib/rake/rdoctask.rb
WARNING: Global access to Rake DSL methods is deprecated.  Please include
    ...  Rake::DSL into classes and modules which use the Rake DSL methods.
WARNING: DSL method Jshop::Application#task called at /usr/local/rvm/gems/ruby-1.9.3-p194/gems/railties-3.0.7/lib/rails/application.rb:215:in `initialize_tasks'
Requiring REXML
[Spree Social] Loading Facebook as authentication source
[Spree Social] Loading Google as authentication source
[Spree Social] Loading Vkontakte as authentication source
[Spree Social] Loading Mailru as authentication source
Clearing index for Product...
Rebuilding index for Product...
undefined method `<=' for nil:NilClass
undefined method `<=' for nil:NilClass
undefined method `<=' for nil:NilClass
undefined method `<=' for nil:NilClass
undefined method `<=' for nil:NilClass
undefined method `<=' for nil:NilClass
undefined method `<=' for nil:NilClass
undefined method `<=' for nil:NilClass
undefined method `<=' for nil:NilClass
undefined method `<=' for nil:NilClass
undefined method `<=' for nil:NilClass
undefined method `<=' for nil:NilClass
undefined method `<=' for nil:NilClass
undefined method `<=' for nil:NilClass
undefined method `<=' for nil:NilClass
undefined method `<=' for nil:NilClass
undefined method `<=' for nil:NilClass
undefined method `<=' for nil:NilClass
undefined method `<=' for nil:NilClass
undefined method `<=' for nil:NilClass
Optimizing...
